<?xml version="1.0" encoding="UTF-8" standalone="no"?>
<!-- Created with Inkscape (http://www.inkscape.org/) -->

<svg
   xmlns:dc="http://purl.org/dc/elements/1.1/"
   xmlns:cc="http://creativecommons.org/ns#"
   xmlns:rdf="http://www.w3.org/1999/02/22-rdf-syntax-ns#"
   xmlns:svg="http://www.w3.org/2000/svg"
   xmlns="http://www.w3.org/2000/svg"
   xmlns:sodipodi="http://sodipodi.sourceforge.net/DTD/sodipodi-0.dtd"
   xmlns:inkscape="http://www.inkscape.org/namespaces/inkscape"
   width="392.31134"
   height="783.58948"
   id="svg5858"
   version="1.1"
   inkscape:version="0.48.4 r9939"
   sodipodi:docname="change-large-data.svg">
  <defs
     id="defs5860">
    <marker
       inkscape:stockid="Arrow1Mend"
       orient="auto"
       refY="0"
       refX="0"
       id="Arrow1Mend"
       style="overflow:visible">
      <path
         id="path3784"
         d="M 0,0 5,-5 -12.5,0 5,5 0,0 z"
         style="fill-rule:evenodd;stroke:#000000;stroke-width:1pt"
         transform="matrix(-0.4,0,0,-0.4,-4,0)"
         inkscape:connector-curvature="0" />
    </marker>
    <marker
       inkscape:stockid="Arrow1Mend"
       orient="auto"
       refY="0"
       refX="0"
       id="marker6671"
       style="overflow:visible">
      <path
         id="path6673"
         d="M 0,0 5,-5 -12.5,0 5,5 0,0 z"
         style="fill-rule:evenodd;stroke:#000000;stroke-width:1pt"
         transform="matrix(-0.4,0,0,-0.4,-4,0)"
         inkscape:connector-curvature="0" />
    </marker>
    <marker
       inkscape:stockid="Arrow1Mend"
       orient="auto"
       refY="0"
       refX="0"
       id="marker6675"
       style="overflow:visible">
      <path
         id="path6677"
         d="M 0,0 5,-5 -12.5,0 5,5 0,0 z"
         style="fill-rule:evenodd;stroke:#000000;stroke-width:1pt"
         transform="matrix(-0.4,0,0,-0.4,-4,0)"
         inkscape:connector-curvature="0" />
    </marker>
    <marker
       style="overflow:visible"
       id="RedArrow1Mend"
       refX="0"
       refY="0"
       orient="auto"
       inkscape:stockid="RedArrow1Mend">
      <path
         transform="matrix(-0.4,0,0,-0.4,-4,0)"
         style="fill:#a40000;fill-rule:evenodd;stroke:#a40000;stroke-width:1pt"
         d="M 0,0 5,-5 -12.5,0 5,5 0,0 z"
         id="path4687"
         inkscape:connector-curvature="0" />
    </marker>
    <marker
       inkscape:stockid="Arrow1Mend"
       orient="auto"
       refY="0"
       refX="0"
       id="Arrow1Mend-9"
       style="overflow:visible">
      <path
         id="path3784-3"
         d="M 0,0 5,-5 -12.5,0 5,5 0,0 z"
         style="fill-rule:evenodd;stroke:#000000;stroke-width:1pt"
         transform="matrix(-0.4,0,0,-0.4,-4,0)"
         inkscape:connector-curvature="0" />
    </marker>
    <marker
       inkscape:stockid="Arrow1Mend"
       orient="auto"
       refY="0"
       refX="0"
       id="Arrow1Mend-7"
       style="overflow:visible">
      <path
         id="path3784-8"
         d="M 0,0 5,-5 -12.5,0 5,5 0,0 z"
         style="fill-rule:evenodd;stroke:#000000;stroke-width:1pt"
         transform="matrix(-0.4,0,0,-0.4,-4,0)"
         inkscape:connector-curvature="0" />
    </marker>
  </defs>
  <sodipodi:namedview
     id="base"
     pagecolor="#ffffff"
     bordercolor="#666666"
     borderopacity="1.0"
     inkscape:pageopacity="0.0"
     inkscape:pageshadow="2"
     inkscape:zoom="0.70710678"
     inkscape:cx="332.12882"
     inkscape:cy="376.65573"
     inkscape:document-units="px"
     inkscape:current-layer="layer1"
     showgrid="false"
     fit-margin-top="5"
     fit-margin-right="5"
     fit-margin-bottom="5"
     fit-margin-left="5"
     inkscape:window-width="1045"
     inkscape:window-height="905"
     inkscape:window-x="2618"
     inkscape:window-y="122"
     inkscape:window-maximized="0" />
  <metadata
     id="metadata5863">
    <rdf:RDF>
      <cc:Work
         rdf:about="">
        <dc:format>image/svg+xml</dc:format>
        <dc:type
           rdf:resource="http://purl.org/dc/dcmitype/StillImage" />
        <dc:title />
      </cc:Work>
    </rdf:RDF>
  </metadata>
  <g
     inkscape:label="レイヤー 1"
     inkscape:groupmode="layer"
     id="layer1"
     transform="translate(-383.25854,-648.56793)">
    <text
       xml:space="preserve"
       style="font-size:20px;font-style:normal;font-variant:normal;font-weight:normal;font-stretch:normal;line-height:125%;letter-spacing:0px;word-spacing:0px;fill:#000000;fill-opacity:1;stroke:none;font-family:Sans;-inkscape-font-specification:Sans"
       x="439.31052"
       y="670.38434"
       id="text3755"
       sodipodi:linespacing="125%"><tspan
         sodipodi:role="line"
         id="tspan3757"
         x="439.31052"
         y="670.38434">大きなサイズのデータの更新</tspan></text>
    <rect
       style="color:#000000;fill:#ffffff;fill-opacity:1;fill-rule:nonzero;stroke:#000000;stroke-width:2;stroke-linecap:butt;stroke-linejoin:round;stroke-miterlimit:4;stroke-opacity:1;stroke-dasharray:none;stroke-dashoffset:0;marker:none;visibility:visible;display:inline;overflow:visible;enable-background:accumulate"
       id="rect5147"
       width="213.26535"
       height="75.292664"
       x="488.36734"
       y="727.21582"
       rx="2.2097087"
       ry="2.2097087"
       inkscape:tile-cx="404.06352"
       inkscape:tile-cy="643.56052"
       inkscape:tile-w="55.265339"
       inkscape:tile-h="36.292664"
       inkscape:tile-x0="376.43085"
       inkscape:tile-y0="625.41418" />
    <rect
       style="color:#000000;fill:#e9b96e;fill-opacity:1;fill-rule:nonzero;stroke:#000000;stroke-width:2;stroke-linecap:butt;stroke-linejoin:round;stroke-miterlimit:4;stroke-opacity:1;stroke-dasharray:none;stroke-dashoffset:0;marker:none;visibility:visible;display:inline;overflow:visible;enable-background:accumulate"
       id="rect5147-1"
       width="99.26535"
       height="36.292664"
       x="489.36734"
       y="728.21582"
       rx="2.2097087"
       ry="2.2097087"
       inkscape:tile-cx="404.06352"
       inkscape:tile-cy="643.56052"
       inkscape:tile-w="55.265339"
       inkscape:tile-h="36.292664"
       inkscape:tile-x0="376.43085"
       inkscape:tile-y0="625.41418" />
    <rect
       inkscape:tile-y0="625.41418"
       inkscape:tile-x0="376.43085"
       inkscape:tile-h="36.292664"
       inkscape:tile-w="55.265339"
       inkscape:tile-cy="643.56052"
       inkscape:tile-cx="404.06352"
       ry="2.2097087"
       rx="2.2097087"
       y="728.21582"
       x="589.36737"
       height="36.292664"
       width="71.76532"
       id="rect6119"
       style="color:#000000;fill:#e9b96e;fill-opacity:1;fill-rule:nonzero;stroke:#000000;stroke-width:2;stroke-linecap:butt;stroke-linejoin:round;stroke-miterlimit:4;stroke-opacity:1;stroke-dasharray:none;stroke-dashoffset:0;marker:none;visibility:visible;display:inline;overflow:visible;enable-background:accumulate" />
    <rect
       style="color:#000000;fill:#e9b96e;fill-opacity:1;fill-rule:nonzero;stroke:#000000;stroke-width:2;stroke-linecap:butt;stroke-linejoin:round;stroke-miterlimit:4;stroke-opacity:1;stroke-dasharray:none;stroke-dashoffset:0;marker:none;visibility:visible;display:inline;overflow:visible;enable-background:accumulate"
       id="rect6136"
       width="37.76532"
       height="36.292664"
       x="662.36737"
       y="728.71582"
       rx="2.2097087"
       ry="2.2097087"
       inkscape:tile-cx="404.06352"
       inkscape:tile-cy="643.56052"
       inkscape:tile-w="55.265339"
       inkscape:tile-h="36.292664"
       inkscape:tile-x0="376.43085"
       inkscape:tile-y0="625.41418" />
    <rect
       inkscape:tile-y0="625.41418"
       inkscape:tile-x0="376.43085"
       inkscape:tile-h="36.292664"
       inkscape:tile-w="55.265339"
       inkscape:tile-cy="643.56052"
       inkscape:tile-cx="404.06352"
       ry="2.2097087"
       rx="2.2097087"
       y="924.85541"
       x="488.36734"
       height="75.292664"
       width="213.26535"
       id="rect6234"
       style="color:#000000;fill:#ffffff;fill-opacity:1;fill-rule:nonzero;stroke:#000000;stroke-width:2;stroke-linecap:butt;stroke-linejoin:round;stroke-miterlimit:4;stroke-opacity:1;stroke-dasharray:none;stroke-dashoffset:0;marker:none;visibility:visible;display:inline;overflow:visible;enable-background:accumulate" />
    <rect
       inkscape:tile-y0="625.41418"
       inkscape:tile-x0="376.43085"
       inkscape:tile-h="36.292664"
       inkscape:tile-w="55.265339"
       inkscape:tile-cy="643.56052"
       inkscape:tile-cx="404.06352"
       ry="2.2097087"
       rx="2.2097087"
       y="925.85541"
       x="489.36734"
       height="36.292664"
       width="99.26535"
       id="rect6236"
       style="color:#000000;fill:#e9b96e;fill-opacity:1;fill-rule:nonzero;stroke:#000000;stroke-width:2;stroke-linecap:butt;stroke-linejoin:round;stroke-miterlimit:4;stroke-opacity:1;stroke-dasharray:none;stroke-dashoffset:0;marker:none;visibility:visible;display:inline;overflow:visible;enable-background:accumulate" />
    <rect
       style="color:#000000;fill:#e9b96e;fill-opacity:1;fill-rule:nonzero;stroke:#000000;stroke-width:2;stroke-linecap:butt;stroke-linejoin:round;stroke-miterlimit:4;stroke-opacity:1;stroke-dasharray:none;stroke-dashoffset:0;marker:none;visibility:visible;display:inline;overflow:visible;enable-background:accumulate"
       id="rect6238"
       width="71.76532"
       height="36.292664"
       x="589.36737"
       y="925.85541"
       rx="2.2097087"
       ry="2.2097087"
       inkscape:tile-cx="404.06352"
       inkscape:tile-cy="643.56052"
       inkscape:tile-w="55.265339"
       inkscape:tile-h="36.292664"
       inkscape:tile-x0="376.43085"
       inkscape:tile-y0="625.41418" />
    <rect
       inkscape:tile-y0="625.41418"
       inkscape:tile-x0="376.43085"
       inkscape:tile-h="36.292664"
       inkscape:tile-w="55.265339"
       inkscape:tile-cy="643.56052"
       inkscape:tile-cx="404.06352"
       ry="2.2097087"
       rx="2.2097087"
       y="963.35541"
       x="488.86737"
       height="36.292664"
       width="80.26532"
       id="rect6240"
       style="color:#000000;fill:#a40000;fill-opacity:1;fill-rule:nonzero;stroke:#000000;stroke-width:2;stroke-linecap:butt;stroke-linejoin:round;stroke-miterlimit:4;stroke-opacity:1;stroke-dasharray:none;stroke-dashoffset:0;marker:none;visibility:visible;display:inline;overflow:visible;enable-background:accumulate" />
    <rect
       inkscape:tile-y0="625.41418"
       inkscape:tile-x0="376.43085"
       inkscape:tile-h="36.292664"
       inkscape:tile-w="55.265339"
       inkscape:tile-cy="643.56052"
       inkscape:tile-cx="404.06352"
       ry="2.2097087"
       rx="2.2097087"
       y="926.35541"
       x="662.36737"
       height="36.292664"
       width="37.76532"
       id="rect6242"
       style="color:#000000;fill:#e9b96e;fill-opacity:1;fill-rule:nonzero;stroke:#000000;stroke-width:2;stroke-linecap:butt;stroke-linejoin:round;stroke-miterlimit:4;stroke-opacity:1;stroke-dasharray:none;stroke-dashoffset:0;marker:none;visibility:visible;display:inline;overflow:visible;enable-background:accumulate" />
    <rect
       ry="2.2097087"
       rx="2.2097087"
       y="689.86469"
       x="389.25854"
       height="36.292664"
       width="55.265339"
       id="rect4260"
       style="color:#000000;fill:#ffffff;fill-opacity:1;fill-rule:nonzero;stroke:#000000;stroke-width:2;stroke-linecap:butt;stroke-linejoin:round;stroke-miterlimit:4;stroke-opacity:1;stroke-dasharray:none;stroke-dashoffset:0;marker:none;visibility:visible;display:inline;overflow:visible;enable-background:accumulate" />
    <path
       style="fill:none;stroke:#000000;stroke-width:2;stroke-linecap:butt;stroke-linejoin:miter;stroke-miterlimit:4;stroke-opacity:1;stroke-dasharray:none;marker-end:url(#Arrow1Mend)"
       d="m 417.04618,707.68888 69.95584,19.79898"
       id="path4518"
       inkscape:connector-curvature="0"
       sodipodi:nodetypes="cc" />
    <rect
       style="color:#000000;fill:#ffffff;fill-opacity:1;fill-rule:nonzero;stroke:#000000;stroke-width:2;stroke-linecap:butt;stroke-linejoin:round;stroke-miterlimit:4;stroke-opacity:1;stroke-dasharray:none;stroke-dashoffset:0;marker:none;visibility:visible;display:inline;overflow:visible;enable-background:accumulate"
       id="rect4528"
       width="55.265339"
       height="36.292664"
       x="389.25854"
       y="741.86469"
       rx="2.2097087"
       ry="2.2097087" />
    <path
       sodipodi:nodetypes="cc"
       inkscape:connector-curvature="0"
       id="path4530"
       d="M 419.1675,759.68888 599.432,744.83964"
       style="fill:none;stroke:#000000;stroke-width:2;stroke-linecap:butt;stroke-linejoin:miter;stroke-miterlimit:4;stroke-opacity:1;stroke-dasharray:none;marker-end:url(#Arrow1Mend)" />
    <rect
       ry="2.2097087"
       rx="2.2097087"
       y="791.86469"
       x="389.25854"
       height="36.292664"
       width="55.265339"
       id="rect4538"
       style="color:#000000;fill:#ffffff;fill-opacity:1;fill-rule:nonzero;stroke:#000000;stroke-width:2;stroke-linecap:butt;stroke-linejoin:round;stroke-miterlimit:4;stroke-opacity:1;stroke-dasharray:none;stroke-dashoffset:0;marker:none;visibility:visible;display:inline;overflow:visible;enable-background:accumulate" />
    <path
       style="fill:none;stroke:#000000;stroke-width:2;stroke-linecap:butt;stroke-linejoin:miter;stroke-miterlimit:4;stroke-opacity:1;stroke-dasharray:none;marker-end:url(#Arrow1Mend)"
       d="M 420.58171,806.15334 662.3645,752.41323"
       id="path4540"
       inkscape:connector-curvature="0"
       sodipodi:nodetypes="cc" />
    <rect
       style="color:#000000;fill:#ffffff;fill-opacity:1;fill-rule:nonzero;stroke:#000000;stroke-width:2;stroke-linecap:butt;stroke-linejoin:round;stroke-miterlimit:4;stroke-opacity:1;stroke-dasharray:none;stroke-dashoffset:0;marker:none;visibility:visible;display:inline;overflow:visible;enable-background:accumulate"
       id="rect6824"
       width="55.265339"
       height="36.292664"
       x="389.25854"
       y="887.86469"
       rx="2.2097087"
       ry="2.2097087" />
    <path
       sodipodi:nodetypes="cc"
       inkscape:connector-curvature="0"
       id="path6826"
       d="m 417.04618,905.68888 69.95584,19.79898"
       style="fill:none;stroke:#000000;stroke-width:2;stroke-linecap:butt;stroke-linejoin:miter;stroke-miterlimit:4;stroke-opacity:1;stroke-dasharray:none;marker-end:url(#Arrow1Mend)" />
    <rect
       ry="2.2097087"
       rx="2.2097087"
       y="939.86469"
       x="389.25854"
       height="36.292664"
       width="55.265339"
       id="rect6828"
       style="color:#000000;fill:#ffffff;fill-opacity:1;fill-rule:nonzero;stroke:#000000;stroke-width:2;stroke-linecap:butt;stroke-linejoin:round;stroke-miterlimit:4;stroke-opacity:1;stroke-dasharray:none;stroke-dashoffset:0;marker:none;visibility:visible;display:inline;overflow:visible;enable-background:accumulate" />
    <path
       style="fill:none;stroke:#000000;stroke-width:2;stroke-linecap:butt;stroke-linejoin:miter;stroke-miterlimit:4;stroke-opacity:1;stroke-dasharray:none;marker-end:url(#Arrow1Mend)"
       d="M 419.1675,957.68888 599.432,942.83964"
       id="path6830"
       inkscape:connector-curvature="0"
       sodipodi:nodetypes="cc" />
    <rect
       style="color:#000000;fill:#ffffff;fill-opacity:1;fill-rule:nonzero;stroke:#000000;stroke-width:2;stroke-linecap:butt;stroke-linejoin:round;stroke-miterlimit:4;stroke-opacity:1;stroke-dasharray:none;stroke-dashoffset:0;marker:none;visibility:visible;display:inline;overflow:visible;enable-background:accumulate"
       id="rect6832"
       width="55.265339"
       height="36.292664"
       x="389.25854"
       y="989.86469"
       rx="2.2097087"
       ry="2.2097087" />
    <path
       sodipodi:nodetypes="cc"
       inkscape:connector-curvature="0"
       id="path6834"
       d="M 420.58171,1004.1533 662.3645,950.41323"
       style="fill:none;stroke:#000000;stroke-width:2;stroke-linecap:butt;stroke-linejoin:miter;stroke-miterlimit:4;stroke-opacity:1;stroke-dasharray:none;marker-end:url(#Arrow1Mend)" />
    <rect
       style="color:#000000;fill:#ffffff;fill-opacity:1;fill-rule:nonzero;stroke:#000000;stroke-width:2;stroke-linecap:butt;stroke-linejoin:round;stroke-miterlimit:4;stroke-opacity:1;stroke-dasharray:none;stroke-dashoffset:0;marker:none;visibility:visible;display:inline;overflow:visible;enable-background:accumulate"
       id="rect6836"
       width="213.26535"
       height="75.292664"
       x="488.36734"
       y="1124.8555"
       rx="2.2097087"
       ry="2.2097087"
       inkscape:tile-cx="404.06352"
       inkscape:tile-cy="643.56052"
       inkscape:tile-w="55.265339"
       inkscape:tile-h="36.292664"
       inkscape:tile-x0="376.43085"
       inkscape:tile-y0="625.41418" />
    <rect
       style="color:#000000;fill:#e9b96e;fill-opacity:1;fill-rule:nonzero;stroke:#000000;stroke-width:2;stroke-linecap:butt;stroke-linejoin:round;stroke-miterlimit:4;stroke-opacity:1;stroke-dasharray:none;stroke-dashoffset:0;marker:none;visibility:visible;display:inline;overflow:visible;enable-background:accumulate"
       id="rect6838"
       width="99.26535"
       height="36.292664"
       x="489.36734"
       y="1125.8555"
       rx="2.2097087"
       ry="2.2097087"
       inkscape:tile-cx="404.06352"
       inkscape:tile-cy="643.56052"
       inkscape:tile-w="55.265339"
       inkscape:tile-h="36.292664"
       inkscape:tile-x0="376.43085"
       inkscape:tile-y0="625.41418" />
    <rect
       inkscape:tile-y0="625.41418"
       inkscape:tile-x0="376.43085"
       inkscape:tile-h="36.292664"
       inkscape:tile-w="55.265339"
       inkscape:tile-cy="643.56052"
       inkscape:tile-cx="404.06352"
       ry="2.2097087"
       rx="2.2097087"
       y="1125.8555"
       x="589.36737"
       height="36.292664"
       width="71.76532"
       id="rect6840"
       style="color:#000000;fill:#e9b96e;fill-opacity:1;fill-rule:nonzero;stroke:#000000;stroke-width:2;stroke-linecap:butt;stroke-linejoin:round;stroke-miterlimit:4;stroke-opacity:1;stroke-dasharray:none;stroke-dashoffset:0;marker:none;visibility:visible;display:inline;overflow:visible;enable-background:accumulate" />
    <rect
       style="color:#000000;fill:#a40000;fill-opacity:1;fill-rule:nonzero;stroke:#000000;stroke-width:2;stroke-linecap:butt;stroke-linejoin:round;stroke-miterlimit:4;stroke-opacity:1;stroke-dasharray:none;stroke-dashoffset:0;marker:none;visibility:visible;display:inline;overflow:visible;enable-background:accumulate"
       id="rect6842"
       width="80.26532"
       height="36.292664"
       x="488.86737"
       y="1163.3555"
       rx="2.2097087"
       ry="2.2097087"
       inkscape:tile-cx="404.06352"
       inkscape:tile-cy="643.56052"
       inkscape:tile-w="55.265339"
       inkscape:tile-h="36.292664"
       inkscape:tile-x0="376.43085"
       inkscape:tile-y0="625.41418" />
    <rect
       style="color:#000000;fill:#e9b96e;fill-opacity:1;fill-rule:nonzero;stroke:#000000;stroke-width:2;stroke-linecap:butt;stroke-linejoin:round;stroke-miterlimit:4;stroke-opacity:1;stroke-dasharray:none;stroke-dashoffset:0;marker:none;visibility:visible;display:inline;overflow:visible;enable-background:accumulate"
       id="rect6844"
       width="37.76532"
       height="36.292664"
       x="662.36737"
       y="1126.3555"
       rx="2.2097087"
       ry="2.2097087"
       inkscape:tile-cx="404.06352"
       inkscape:tile-cy="643.56052"
       inkscape:tile-w="55.265339"
       inkscape:tile-h="36.292664"
       inkscape:tile-x0="376.43085"
       inkscape:tile-y0="625.41418" />
    <rect
       ry="2.2097087"
       rx="2.2097087"
       y="1087.8647"
       x="389.25854"
       height="36.292664"
       width="55.265339"
       id="rect6846"
       style="color:#000000;fill:#ffffff;fill-opacity:1;fill-rule:nonzero;stroke:#000000;stroke-width:2;stroke-linecap:butt;stroke-linejoin:round;stroke-miterlimit:4;stroke-opacity:1;stroke-dasharray:none;stroke-dashoffset:0;marker:none;visibility:visible;display:inline;overflow:visible;enable-background:accumulate" />
    <path
       style="fill:#a40000;stroke:#a40000;stroke-width:2;stroke-linecap:butt;stroke-linejoin:miter;stroke-miterlimit:4;stroke-opacity:1;stroke-dasharray:none;marker-end:url(#RedArrow1Mend)"
       d="m 422.52077,1111.9206 61.5,54.5736"
       id="path4633"
       inkscape:connector-curvature="0"
       sodipodi:nodetypes="cc" />
    <rect
       style="color:#000000;fill:#ffffff;fill-opacity:1;fill-rule:nonzero;stroke:#000000;stroke-width:2;stroke-linecap:butt;stroke-linejoin:round;stroke-miterlimit:4;stroke-opacity:1;stroke-dasharray:none;stroke-dashoffset:0;marker:none;visibility:visible;display:inline;overflow:visible;enable-background:accumulate"
       id="rect6850"
       width="55.265339"
       height="36.292664"
       x="389.25854"
       y="1139.8647"
       rx="2.2097087"
       ry="2.2097087" />
    <path
       sodipodi:nodetypes="cc"
       inkscape:connector-curvature="0"
       id="path6852"
       d="M 419.1675,1157.6889 599.432,1142.8396"
       style="fill:none;stroke:#000000;stroke-width:2;stroke-linecap:butt;stroke-linejoin:miter;stroke-miterlimit:4;stroke-opacity:1;stroke-dasharray:none;marker-end:url(#Arrow1Mend)" />
    <rect
       ry="2.2097087"
       rx="2.2097087"
       y="1189.8647"
       x="389.25854"
       height="36.292664"
       width="55.265339"
       id="rect6854"
       style="color:#000000;fill:#ffffff;fill-opacity:1;fill-rule:nonzero;stroke:#000000;stroke-width:2;stroke-linecap:butt;stroke-linejoin:round;stroke-miterlimit:4;stroke-opacity:1;stroke-dasharray:none;stroke-dashoffset:0;marker:none;visibility:visible;display:inline;overflow:visible;enable-background:accumulate" />
    <path
       style="fill:none;stroke:#000000;stroke-width:2;stroke-linecap:butt;stroke-linejoin:miter;stroke-miterlimit:4;stroke-opacity:1;stroke-dasharray:none;marker-end:url(#Arrow1Mend)"
       d="M 420.58171,1204.1533 662.3645,1150.4132"
       id="path6856"
       inkscape:connector-curvature="0"
       sodipodi:nodetypes="cc" />
    <path
       inkscape:connector-curvature="0"
       id="path4235"
       d="m 497.11027,840.33438 0,39.5"
       style="fill:none;stroke:#000000;stroke-width:2;stroke-linecap:butt;stroke-linejoin:miter;stroke-miterlimit:4;stroke-opacity:1;stroke-dasharray:none;marker-end:url(#Arrow1Mend)"
       sodipodi:nodetypes="cc" />
    <text
       sodipodi:linespacing="125%"
       id="text4306"
       y="869.50739"
       x="518.88232"
       style="font-size:20px;font-style:normal;font-variant:normal;font-weight:normal;font-stretch:normal;line-height:125%;letter-spacing:0px;word-spacing:0px;fill:#000000;fill-opacity:1;stroke:none;font-family:Sans;-inkscape-font-specification:Sans"
       xml:space="preserve"><tspan
         y="869.50739"
         x="518.88232"
         id="tspan4308"
         sodipodi:role="line">新しい値を作る</tspan></text>
    <path
       sodipodi:nodetypes="cc"
       style="fill:none;stroke:#000000;stroke-width:2;stroke-linecap:butt;stroke-linejoin:miter;stroke-miterlimit:4;stroke-opacity:1;stroke-dasharray:none;marker-end:url(#Arrow1Mend)"
       d="m 489.7524,1031.2532 0,39.5"
       id="path4611"
       inkscape:connector-curvature="0" />
    <text
       xml:space="preserve"
       style="font-size:20px;font-style:normal;font-variant:normal;font-weight:normal;font-stretch:normal;line-height:125%;letter-spacing:0px;word-spacing:0px;fill:#000000;fill-opacity:1;stroke:none;font-family:Sans;-inkscape-font-specification:Sans"
       x="514.52448"
       y="1059.4263"
       id="text4613"
       sodipodi:linespacing="125%"><tspan
         sodipodi:role="line"
         id="tspan4615"
         x="514.52448"
         y="1059.4263">新しい値を参照する</tspan></text>
    <rect
       inkscape:tile-y0="625.41418"
       inkscape:tile-x0="376.43085"
       inkscape:tile-h="36.292664"
       inkscape:tile-w="55.265339"
       inkscape:tile-cy="643.56052"
       inkscape:tile-cx="404.06352"
       ry="2.2097087"
       rx="2.2097087"
       y="1324.8555"
       x="488.36734"
       height="75.292664"
       width="213.26535"
       id="rect6931"
       style="color:#000000;fill:#ffffff;fill-opacity:1;fill-rule:nonzero;stroke:#000000;stroke-width:2;stroke-linecap:butt;stroke-linejoin:round;stroke-miterlimit:4;stroke-opacity:1;stroke-dasharray:none;stroke-dashoffset:0;marker:none;visibility:visible;display:inline;overflow:visible;enable-background:accumulate" />
    <rect
       inkscape:tile-y0="625.41418"
       inkscape:tile-x0="376.43085"
       inkscape:tile-h="36.292664"
       inkscape:tile-w="55.265339"
       inkscape:tile-cy="643.56052"
       inkscape:tile-cx="404.06352"
       ry="2.2097087"
       rx="2.2097087"
       y="1325.8555"
       x="489.36734"
       height="36.292664"
       width="99.26535"
       id="rect6933"
       style="color:#000000;fill:#ffffff;fill-opacity:1;fill-rule:nonzero;stroke:#000000;stroke-width:2;stroke-linecap:butt;stroke-linejoin:round;stroke-miterlimit:4;stroke-opacity:1;stroke-dasharray:none;stroke-dashoffset:0;marker:none;visibility:visible;display:inline;overflow:visible;enable-background:accumulate" />
    <rect
       style="color:#000000;fill:#e9b96e;fill-opacity:1;fill-rule:nonzero;stroke:#000000;stroke-width:2;stroke-linecap:butt;stroke-linejoin:round;stroke-miterlimit:4;stroke-opacity:1;stroke-dasharray:none;stroke-dashoffset:0;marker:none;visibility:visible;display:inline;overflow:visible;enable-background:accumulate"
       id="rect6935"
       width="71.76532"
       height="36.292664"
       x="589.36737"
       y="1325.8555"
       rx="2.2097087"
       ry="2.2097087"
       inkscape:tile-cx="404.06352"
       inkscape:tile-cy="643.56052"
       inkscape:tile-w="55.265339"
       inkscape:tile-h="36.292664"
       inkscape:tile-x0="376.43085"
       inkscape:tile-y0="625.41418" />
    <rect
       inkscape:tile-y0="625.41418"
       inkscape:tile-x0="376.43085"
       inkscape:tile-h="36.292664"
       inkscape:tile-w="55.265339"
       inkscape:tile-cy="643.56052"
       inkscape:tile-cx="404.06352"
       ry="2.2097087"
       rx="2.2097087"
       y="1363.3555"
       x="488.86737"
       height="36.292664"
       width="80.26532"
       id="rect6937"
       style="color:#000000;fill:#a40000;fill-opacity:1;fill-rule:nonzero;stroke:#000000;stroke-width:2;stroke-linecap:butt;stroke-linejoin:round;stroke-miterlimit:4;stroke-opacity:1;stroke-dasharray:none;stroke-dashoffset:0;marker:none;visibility:visible;display:inline;overflow:visible;enable-background:accumulate" />
    <rect
       inkscape:tile-y0="625.41418"
       inkscape:tile-x0="376.43085"
       inkscape:tile-h="36.292664"
       inkscape:tile-w="55.265339"
       inkscape:tile-cy="643.56052"
       inkscape:tile-cx="404.06352"
       ry="2.2097087"
       rx="2.2097087"
       y="1326.3555"
       x="662.36737"
       height="36.292664"
       width="37.76532"
       id="rect6939"
       style="color:#000000;fill:#e9b96e;fill-opacity:1;fill-rule:nonzero;stroke:#000000;stroke-width:2;stroke-linecap:butt;stroke-linejoin:round;stroke-miterlimit:4;stroke-opacity:1;stroke-dasharray:none;stroke-dashoffset:0;marker:none;visibility:visible;display:inline;overflow:visible;enable-background:accumulate" />
    <rect
       style="color:#000000;fill:#ffffff;fill-opacity:1;fill-rule:nonzero;stroke:#000000;stroke-width:2;stroke-linecap:butt;stroke-linejoin:round;stroke-miterlimit:4;stroke-opacity:1;stroke-dasharray:none;stroke-dashoffset:0;marker:none;visibility:visible;display:inline;overflow:visible;enable-background:accumulate"
       id="rect6941"
       width="55.265339"
       height="36.292664"
       x="389.25854"
       y="1287.8647"
       rx="2.2097087"
       ry="2.2097087" />
    <path
       sodipodi:nodetypes="cc"
       inkscape:connector-curvature="0"
       id="path6943"
       d="m 422.52077,1311.9206 61.5,54.5736"
       style="fill:#a40000;stroke:#a40000;stroke-width:2;stroke-linecap:butt;stroke-linejoin:miter;stroke-miterlimit:4;stroke-opacity:1;stroke-dasharray:none;marker-end:url(#RedArrow1Mend)" />
    <rect
       ry="2.2097087"
       rx="2.2097087"
       y="1339.8647"
       x="389.25854"
       height="36.292664"
       width="55.265339"
       id="rect6945"
       style="color:#000000;fill:#ffffff;fill-opacity:1;fill-rule:nonzero;stroke:#000000;stroke-width:2;stroke-linecap:butt;stroke-linejoin:round;stroke-miterlimit:4;stroke-opacity:1;stroke-dasharray:none;stroke-dashoffset:0;marker:none;visibility:visible;display:inline;overflow:visible;enable-background:accumulate" />
    <path
       style="fill:none;stroke:#000000;stroke-width:2;stroke-linecap:butt;stroke-linejoin:miter;stroke-miterlimit:4;stroke-opacity:1;stroke-dasharray:none;marker-end:url(#Arrow1Mend)"
       d="M 419.1675,1357.6889 599.432,1342.8396"
       id="path6947"
       inkscape:connector-curvature="0"
       sodipodi:nodetypes="cc" />
    <rect
       style="color:#000000;fill:#ffffff;fill-opacity:1;fill-rule:nonzero;stroke:#000000;stroke-width:2;stroke-linecap:butt;stroke-linejoin:round;stroke-miterlimit:4;stroke-opacity:1;stroke-dasharray:none;stroke-dashoffset:0;marker:none;visibility:visible;display:inline;overflow:visible;enable-background:accumulate"
       id="rect6949"
       width="55.265339"
       height="36.292664"
       x="389.25854"
       y="1389.8647"
       rx="2.2097087"
       ry="2.2097087" />
    <path
       sodipodi:nodetypes="cc"
       inkscape:connector-curvature="0"
       id="path6951"
       d="M 420.58171,1404.1533 662.3645,1350.4132"
       style="fill:none;stroke:#000000;stroke-width:2;stroke-linecap:butt;stroke-linejoin:miter;stroke-miterlimit:4;stroke-opacity:1;stroke-dasharray:none;marker-end:url(#Arrow1Mend)" />
    <path
       inkscape:connector-curvature="0"
       id="path6953"
       d="m 489.7524,1231.2532 0,39.5"
       style="fill:none;stroke:#000000;stroke-width:2;stroke-linecap:butt;stroke-linejoin:miter;stroke-miterlimit:4;stroke-opacity:1;stroke-dasharray:none;marker-end:url(#Arrow1Mend)"
       sodipodi:nodetypes="cc" />
    <text
       sodipodi:linespacing="125%"
       id="text6955"
       y="1259.4263"
       x="514.52448"
       style="font-size:20px;font-style:normal;font-variant:normal;font-weight:normal;font-stretch:normal;line-height:125%;letter-spacing:0px;word-spacing:0px;fill:#000000;fill-opacity:1;stroke:none;font-family:Sans;-inkscape-font-specification:Sans"
       xml:space="preserve"><tspan
         y="1259.4263"
         x="514.52448"
         id="tspan6957"
         sodipodi:role="line" /></text>
    <text
       xml:space="preserve"
       style="font-size:20px;font-style:normal;font-variant:normal;font-weight:normal;font-stretch:normal;line-height:125%;letter-spacing:0px;word-spacing:0px;fill:#000000;fill-opacity:1;stroke:none;font-family:Sans;-inkscape-font-specification:Sans"
       x="31.112698"
       y="560.85059"
       id="text6959"
       sodipodi:linespacing="125%"
       transform="translate(482.36734,698.79205)"><tspan
         sodipodi:role="line"
         id="tspan6961"
         x="31.112698"
         y="560.85059">古い値に削除マークをつける</tspan></text>
    <text
       xml:space="preserve"
       style="font-size:20px;font-style:normal;font-variant:normal;font-weight:normal;font-stretch:normal;line-height:125%;letter-spacing:0px;word-spacing:0px;fill:#000000;fill-opacity:1;stroke:none;font-family:Sans;-inkscape-font-specification:Sans"
       x="26.870058"
       y="623.78308"
       id="text6963"
       sodipodi:linespacing="125%"
       transform="translate(482.36734,698.79205)"><tspan
         sodipodi:role="line"
         id="tspan6965"
         x="26.870058"
         y="623.78308" /></text>
    <rect
       style="color:#000000;fill:#ffffff;fill-opacity:1;fill-rule:nonzero;stroke:#000000;stroke-width:2;stroke-linecap:butt;stroke-linejoin:round;stroke-miterlimit:4;stroke-opacity:1;stroke-dasharray:none;stroke-dashoffset:0;marker:none;visibility:visible;display:inline;overflow:visible;enable-background:accumulate"
       id="rect6971"
       width="28.864014"
       height="25.161011"
       x="480.09528"
       y="1312.1656"
       rx="2.2097087"
       ry="2.2097087"
       inkscape:tile-cx="404.06352"
       inkscape:tile-cy="643.56052"
       inkscape:tile-w="55.265339"
       inkscape:tile-h="36.292664"
       inkscape:tile-x0="376.43085"
       inkscape:tile-y0="625.41418" />
    <text
       xml:space="preserve"
       style="font-size:20px;font-style:normal;font-variant:normal;font-weight:normal;font-stretch:normal;line-height:125%;letter-spacing:0px;word-spacing:0px;fill:#a40000;fill-opacity:1;stroke:none;font-family:Sans;-inkscape-font-specification:Sans"
       x="484.2374"
       y="1331.9642"
       id="text6967"
       sodipodi:linespacing="125%"><tspan
         sodipodi:role="line"
         id="tspan6969"
         x="484.2374"
         y="1331.9642">×</tspan></text>
  </g>
</svg>
