<?xml version="1.0" encoding="UTF-8" standalone="no"?>
<!-- Created with Inkscape (http://www.inkscape.org/) -->

<svg
   xmlns:dc="http://purl.org/dc/elements/1.1/"
   xmlns:cc="http://creativecommons.org/ns#"
   xmlns:rdf="http://www.w3.org/1999/02/22-rdf-syntax-ns#"
   xmlns:svg="http://www.w3.org/2000/svg"
   xmlns="http://www.w3.org/2000/svg"
   xmlns:sodipodi="http://sodipodi.sourceforge.net/DTD/sodipodi-0.dtd"
   xmlns:inkscape="http://www.inkscape.org/namespaces/inkscape"
   width="400.22656"
   height="381.56073"
   id="svg5858"
   version="1.1"
   inkscape:version="0.48.4 r9939"
   sodipodi:docname="reuse-large-data.svg">
  <defs
     id="defs5860">
    <marker
       inkscape:stockid="Arrow1Mend"
       orient="auto"
       refY="0"
       refX="0"
       id="Arrow1Mend"
       style="overflow:visible">
      <path
         id="path3784"
         d="M 0,0 5,-5 -12.5,0 5,5 0,0 z"
         style="fill-rule:evenodd;stroke:#000000;stroke-width:1pt"
         transform="matrix(-0.4,0,0,-0.4,-4,0)"
         inkscape:connector-curvature="0" />
    </marker>
    <marker
       inkscape:stockid="Arrow1Mend"
       orient="auto"
       refY="0"
       refX="0"
       id="marker6671"
       style="overflow:visible">
      <path
         id="path6673"
         d="M 0,0 5,-5 -12.5,0 5,5 0,0 z"
         style="fill-rule:evenodd;stroke:#000000;stroke-width:1pt"
         transform="matrix(-0.4,0,0,-0.4,-4,0)"
         inkscape:connector-curvature="0" />
    </marker>
    <marker
       inkscape:stockid="Arrow1Mend"
       orient="auto"
       refY="0"
       refX="0"
       id="marker6675"
       style="overflow:visible">
      <path
         id="path6677"
         d="M 0,0 5,-5 -12.5,0 5,5 0,0 z"
         style="fill-rule:evenodd;stroke:#000000;stroke-width:1pt"
         transform="matrix(-0.4,0,0,-0.4,-4,0)"
         inkscape:connector-curvature="0" />
    </marker>
    <marker
       style="overflow:visible"
       id="RedArrow1Mend"
       refX="0"
       refY="0"
       orient="auto"
       inkscape:stockid="RedArrow1Mend">
      <path
         transform="matrix(-0.4,0,0,-0.4,-4,0)"
         style="fill:#a40000;fill-rule:evenodd;stroke:#a40000;stroke-width:1pt"
         d="M 0,0 5,-5 -12.5,0 5,5 0,0 z"
         id="path4687"
         inkscape:connector-curvature="0" />
    </marker>
    <marker
       inkscape:stockid="Arrow1Mend"
       orient="auto"
       refY="0"
       refX="0"
       id="Arrow1Mend-9"
       style="overflow:visible">
      <path
         id="path3784-3"
         d="M 0,0 5,-5 -12.5,0 5,5 0,0 z"
         style="fill-rule:evenodd;stroke:#000000;stroke-width:1pt"
         transform="matrix(-0.4,0,0,-0.4,-4,0)"
         inkscape:connector-curvature="0" />
    </marker>
    <marker
       inkscape:stockid="Arrow1Mend"
       orient="auto"
       refY="0"
       refX="0"
       id="Arrow1Mend-7"
       style="overflow:visible">
      <path
         id="path3784-8"
         d="M 0,0 5,-5 -12.5,0 5,5 0,0 z"
         style="fill-rule:evenodd;stroke:#000000;stroke-width:1pt"
         transform="matrix(-0.4,0,0,-0.4,-4,0)"
         inkscape:connector-curvature="0" />
    </marker>
  </defs>
  <sodipodi:namedview
     id="base"
     pagecolor="#ffffff"
     bordercolor="#666666"
     borderopacity="1.0"
     inkscape:pageopacity="0.0"
     inkscape:pageshadow="2"
     inkscape:zoom="0.70710678"
     inkscape:cx="199.85485"
     inkscape:cy="122.32444"
     inkscape:document-units="px"
     inkscape:current-layer="layer1"
     showgrid="false"
     fit-margin-top="5"
     fit-margin-right="5"
     fit-margin-bottom="5"
     fit-margin-left="5"
     inkscape:window-width="1045"
     inkscape:window-height="905"
     inkscape:window-x="1985"
     inkscape:window-y="92"
     inkscape:window-maximized="0" />
  <metadata
     id="metadata5863">
    <rdf:RDF>
      <cc:Work
         rdf:about="">
        <dc:format>image/svg+xml</dc:format>
        <dc:type
           rdf:resource="http://purl.org/dc/dcmitype/StillImage" />
        <dc:title />
      </cc:Work>
    </rdf:RDF>
  </metadata>
  <g
     inkscape:label="レイヤー 1"
     inkscape:groupmode="layer"
     id="layer1"
     transform="translate(-322.1113,-648.58746)">
    <text
       xml:space="preserve"
       style="font-size:20px;font-style:normal;font-variant:normal;font-weight:normal;font-stretch:normal;line-height:125%;letter-spacing:0px;word-spacing:0px;fill:#000000;fill-opacity:1;stroke:none;font-family:Sans;-inkscape-font-specification:Sans"
       x="384.15619"
       y="677.45538"
       id="text3755"
       sodipodi:linespacing="125%"><tspan
         sodipodi:role="line"
         id="tspan3757"
         x="384.15619"
         y="677.45538">大きなサイズのデータの再利用</tspan></text>
    <rect
       inkscape:tile-y0="625.41418"
       inkscape:tile-x0="376.43085"
       inkscape:tile-h="36.292664"
       inkscape:tile-w="55.265339"
       inkscape:tile-cy="643.56052"
       inkscape:tile-cx="404.06352"
       ry="2.2097087"
       rx="2.2097087"
       y="710.85553"
       x="488.36734"
       height="75.292664"
       width="213.26535"
       id="rect6931"
       style="color:#000000;fill:#ffffff;fill-opacity:1;fill-rule:nonzero;stroke:#000000;stroke-width:2;stroke-linecap:butt;stroke-linejoin:round;stroke-miterlimit:4;stroke-opacity:1;stroke-dasharray:none;stroke-dashoffset:0;marker:none;visibility:visible;display:inline;overflow:visible;enable-background:accumulate" />
    <rect
       inkscape:tile-y0="625.41418"
       inkscape:tile-x0="376.43085"
       inkscape:tile-h="36.292664"
       inkscape:tile-w="55.265339"
       inkscape:tile-cy="643.56052"
       inkscape:tile-cx="404.06352"
       ry="2.2097087"
       rx="2.2097087"
       y="711.85553"
       x="489.36734"
       height="36.292664"
       width="99.26535"
       id="rect6933"
       style="color:#000000;fill:#ffffff;fill-opacity:1;fill-rule:nonzero;stroke:#000000;stroke-width:2;stroke-linecap:butt;stroke-linejoin:round;stroke-miterlimit:4;stroke-opacity:1;stroke-dasharray:none;stroke-dashoffset:0;marker:none;visibility:visible;display:inline;overflow:visible;enable-background:accumulate" />
    <rect
       style="color:#000000;fill:#e9b96e;fill-opacity:1;fill-rule:nonzero;stroke:#000000;stroke-width:2;stroke-linecap:butt;stroke-linejoin:round;stroke-miterlimit:4;stroke-opacity:1;stroke-dasharray:none;stroke-dashoffset:0;marker:none;visibility:visible;display:inline;overflow:visible;enable-background:accumulate"
       id="rect6935"
       width="71.76532"
       height="36.292664"
       x="589.36737"
       y="711.85553"
       rx="2.2097087"
       ry="2.2097087"
       inkscape:tile-cx="404.06352"
       inkscape:tile-cy="643.56052"
       inkscape:tile-w="55.265339"
       inkscape:tile-h="36.292664"
       inkscape:tile-x0="376.43085"
       inkscape:tile-y0="625.41418" />
    <rect
       inkscape:tile-y0="625.41418"
       inkscape:tile-x0="376.43085"
       inkscape:tile-h="36.292664"
       inkscape:tile-w="55.265339"
       inkscape:tile-cy="643.56052"
       inkscape:tile-cx="404.06352"
       ry="2.2097087"
       rx="2.2097087"
       y="749.35553"
       x="488.86737"
       height="36.292664"
       width="80.26532"
       id="rect6937"
       style="color:#000000;fill:#e9b96e;fill-opacity:1;fill-rule:nonzero;stroke:#000000;stroke-width:2;stroke-linecap:butt;stroke-linejoin:round;stroke-miterlimit:4;stroke-opacity:1;stroke-dasharray:none;stroke-dashoffset:0;marker:none;visibility:visible;display:inline;overflow:visible;enable-background:accumulate" />
    <rect
       inkscape:tile-y0="625.41418"
       inkscape:tile-x0="376.43085"
       inkscape:tile-h="36.292664"
       inkscape:tile-w="55.265339"
       inkscape:tile-cy="643.56052"
       inkscape:tile-cx="404.06352"
       ry="2.2097087"
       rx="2.2097087"
       y="712.35553"
       x="662.36737"
       height="36.292664"
       width="37.76532"
       id="rect6939"
       style="color:#000000;fill:#e9b96e;fill-opacity:1;fill-rule:nonzero;stroke:#000000;stroke-width:2;stroke-linecap:butt;stroke-linejoin:round;stroke-miterlimit:4;stroke-opacity:1;stroke-dasharray:none;stroke-dashoffset:0;marker:none;visibility:visible;display:inline;overflow:visible;enable-background:accumulate" />
    <text
       sodipodi:linespacing="125%"
       id="text6955"
       y="1259.4263"
       x="514.52448"
       style="font-size:20px;font-style:normal;font-variant:normal;font-weight:normal;font-stretch:normal;line-height:125%;letter-spacing:0px;word-spacing:0px;fill:#000000;fill-opacity:1;stroke:none;font-family:Sans;-inkscape-font-specification:Sans"
       xml:space="preserve"><tspan
         y="1259.4263"
         x="514.52448"
         id="tspan6957"
         sodipodi:role="line" /></text>
    <text
       xml:space="preserve"
       style="font-size:20px;font-style:normal;font-variant:normal;font-weight:normal;font-stretch:normal;line-height:125%;letter-spacing:0px;word-spacing:0px;fill:#000000;fill-opacity:1;stroke:none;font-family:Sans;-inkscape-font-specification:Sans"
       x="26.870058"
       y="623.78308"
       id="text6963"
       sodipodi:linespacing="125%"
       transform="translate(482.36734,698.79205)"><tspan
         sodipodi:role="line"
         id="tspan6965"
         x="26.870058"
         y="623.78308" /></text>
    <rect
       style="color:#000000;fill:#ffffff;fill-opacity:1;fill-rule:nonzero;stroke:#000000;stroke-width:2;stroke-linecap:butt;stroke-linejoin:round;stroke-miterlimit:4;stroke-opacity:1;stroke-dasharray:none;stroke-dashoffset:0;marker:none;visibility:visible;display:inline;overflow:visible;enable-background:accumulate"
       id="rect6971"
       width="28.864014"
       height="25.161011"
       x="480.09528"
       y="698.16559"
       rx="2.2097087"
       ry="2.2097087"
       inkscape:tile-cx="404.06352"
       inkscape:tile-cy="643.56052"
       inkscape:tile-w="55.265339"
       inkscape:tile-h="36.292664"
       inkscape:tile-x0="376.43085"
       inkscape:tile-y0="625.41418" />
    <text
       xml:space="preserve"
       style="font-size:20px;font-style:normal;font-variant:normal;font-weight:normal;font-stretch:normal;line-height:125%;letter-spacing:0px;word-spacing:0px;fill:#a40000;fill-opacity:1;stroke:none;font-family:Sans;-inkscape-font-specification:Sans"
       x="484.2374"
       y="717.96417"
       id="text6967"
       sodipodi:linespacing="125%"><tspan
         sodipodi:role="line"
         id="tspan6969"
         x="484.2374"
         y="717.96417">×</tspan></text>
    <rect
       style="color:#000000;fill:#e9b96e;fill-opacity:1;fill-rule:nonzero;stroke:#000000;stroke-width:2;stroke-linecap:butt;stroke-linejoin:round;stroke-miterlimit:4;stroke-opacity:1;stroke-dasharray:none;stroke-dashoffset:0;marker:none;visibility:visible;display:inline;overflow:visible;enable-background:accumulate"
       id="rect7713"
       width="131.26532"
       height="36.292725"
       x="568.86737"
       y="749.35553"
       rx="2.2097087"
       ry="2.2097087"
       inkscape:tile-cx="404.06352"
       inkscape:tile-cy="643.56052"
       inkscape:tile-w="55.265339"
       inkscape:tile-h="36.292664"
       inkscape:tile-x0="376.43085"
       inkscape:tile-y0="625.41418" />
    <text
       sodipodi:linespacing="125%"
       id="text7795"
       y="752.38434"
       x="326.31052"
       style="font-size:20px;font-style:normal;font-variant:normal;font-weight:normal;font-stretch:normal;line-height:125%;letter-spacing:0px;word-spacing:0px;fill:#000000;fill-opacity:1;stroke:none;font-family:Sans;-inkscape-font-specification:Sans"
       xml:space="preserve"><tspan
         y="752.38434"
         x="326.31052"
         id="tspan7797"
         sodipodi:role="line">再利用非対象</tspan></text>
    <rect
       style="color:#000000;fill:#ffffff;fill-opacity:1;fill-rule:nonzero;stroke:#000000;stroke-width:2;stroke-linecap:butt;stroke-linejoin:round;stroke-miterlimit:4;stroke-opacity:1;stroke-dasharray:none;stroke-dashoffset:0;marker:none;visibility:visible;display:inline;overflow:visible;enable-background:accumulate"
       id="rect7799"
       width="213.26535"
       height="75.292664"
       x="488.36734"
       y="830.85553"
       rx="2.2097087"
       ry="2.2097087"
       inkscape:tile-cx="404.06352"
       inkscape:tile-cy="643.56052"
       inkscape:tile-w="55.265339"
       inkscape:tile-h="36.292664"
       inkscape:tile-x0="376.43085"
       inkscape:tile-y0="625.41418" />
    <rect
       style="color:#000000;fill:#ffffff;fill-opacity:1;fill-rule:nonzero;stroke:#000000;stroke-width:2;stroke-linecap:butt;stroke-linejoin:round;stroke-miterlimit:4;stroke-opacity:1;stroke-dasharray:none;stroke-dashoffset:0;marker:none;visibility:visible;display:inline;overflow:visible;enable-background:accumulate"
       id="rect7801"
       width="99.26535"
       height="36.292664"
       x="489.36734"
       y="831.85553"
       rx="2.2097087"
       ry="2.2097087"
       inkscape:tile-cx="404.06352"
       inkscape:tile-cy="643.56052"
       inkscape:tile-w="55.265339"
       inkscape:tile-h="36.292664"
       inkscape:tile-x0="376.43085"
       inkscape:tile-y0="625.41418" />
    <rect
       inkscape:tile-y0="625.41418"
       inkscape:tile-x0="376.43085"
       inkscape:tile-h="36.292664"
       inkscape:tile-w="55.265339"
       inkscape:tile-cy="643.56052"
       inkscape:tile-cx="404.06352"
       ry="2.2097087"
       rx="2.2097087"
       y="831.85553"
       x="589.36737"
       height="36.292664"
       width="71.76532"
       id="rect7803"
       style="color:#000000;fill:#ffffff;fill-opacity:1;fill-rule:nonzero;stroke:#000000;stroke-width:2;stroke-linecap:butt;stroke-linejoin:round;stroke-miterlimit:4;stroke-opacity:1;stroke-dasharray:none;stroke-dashoffset:0;marker:none;visibility:visible;display:inline;overflow:visible;enable-background:accumulate" />
    <rect
       style="color:#000000;fill:#ffffff;fill-opacity:1;fill-rule:nonzero;stroke:#000000;stroke-width:2;stroke-linecap:butt;stroke-linejoin:round;stroke-miterlimit:4;stroke-opacity:1;stroke-dasharray:none;stroke-dashoffset:0;marker:none;visibility:visible;display:inline;overflow:visible;enable-background:accumulate"
       id="rect7805"
       width="80.26532"
       height="36.292664"
       x="488.86737"
       y="869.35553"
       rx="2.2097087"
       ry="2.2097087"
       inkscape:tile-cx="404.06352"
       inkscape:tile-cy="643.56052"
       inkscape:tile-w="55.265339"
       inkscape:tile-h="36.292664"
       inkscape:tile-x0="376.43085"
       inkscape:tile-y0="625.41418" />
    <rect
       style="color:#000000;fill:#e9b96e;fill-opacity:1;fill-rule:nonzero;stroke:#000000;stroke-width:2;stroke-linecap:butt;stroke-linejoin:round;stroke-miterlimit:4;stroke-opacity:1;stroke-dasharray:none;stroke-dashoffset:0;marker:none;visibility:visible;display:inline;overflow:visible;enable-background:accumulate"
       id="rect7807"
       width="37.76532"
       height="36.292664"
       x="662.36737"
       y="832.35553"
       rx="2.2097087"
       ry="2.2097087"
       inkscape:tile-cx="404.06352"
       inkscape:tile-cy="643.56052"
       inkscape:tile-w="55.265339"
       inkscape:tile-h="36.292664"
       inkscape:tile-x0="376.43085"
       inkscape:tile-y0="625.41418" />
    <rect
       inkscape:tile-y0="625.41418"
       inkscape:tile-x0="376.43085"
       inkscape:tile-h="36.292664"
       inkscape:tile-w="55.265339"
       inkscape:tile-cy="643.56052"
       inkscape:tile-cx="404.06352"
       ry="2.2097087"
       rx="2.2097087"
       y="818.16559"
       x="480.09528"
       height="25.161011"
       width="28.864014"
       id="rect7809"
       style="color:#000000;fill:#ffffff;fill-opacity:1;fill-rule:nonzero;stroke:#000000;stroke-width:2;stroke-linecap:butt;stroke-linejoin:round;stroke-miterlimit:4;stroke-opacity:1;stroke-dasharray:none;stroke-dashoffset:0;marker:none;visibility:visible;display:inline;overflow:visible;enable-background:accumulate" />
    <text
       sodipodi:linespacing="125%"
       id="text7811"
       y="837.96417"
       x="484.2374"
       style="font-size:20px;font-style:normal;font-variant:normal;font-weight:normal;font-stretch:normal;line-height:125%;letter-spacing:0px;word-spacing:0px;fill:#a40000;fill-opacity:1;stroke:none;font-family:Sans;-inkscape-font-specification:Sans"
       xml:space="preserve"><tspan
         y="837.96417"
         x="484.2374"
         id="tspan7813"
         sodipodi:role="line">×</tspan></text>
    <rect
       inkscape:tile-y0="625.41418"
       inkscape:tile-x0="376.43085"
       inkscape:tile-h="36.292664"
       inkscape:tile-w="55.265339"
       inkscape:tile-cy="643.56052"
       inkscape:tile-cx="404.06352"
       ry="2.2097087"
       rx="2.2097087"
       y="869.35553"
       x="568.86737"
       height="36.292725"
       width="131.26532"
       id="rect7815"
       style="color:#000000;fill:#ffffff;fill-opacity:1;fill-rule:nonzero;stroke:#000000;stroke-width:2;stroke-linecap:butt;stroke-linejoin:round;stroke-miterlimit:4;stroke-opacity:1;stroke-dasharray:none;stroke-dashoffset:0;marker:none;visibility:visible;display:inline;overflow:visible;enable-background:accumulate" />
    <text
       xml:space="preserve"
       style="font-size:20px;font-style:normal;font-variant:normal;font-weight:normal;font-stretch:normal;line-height:125%;letter-spacing:0px;word-spacing:0px;fill:#000000;fill-opacity:1;stroke:none;font-family:Sans;-inkscape-font-specification:Sans"
       x="326.31052"
       y="872.38434"
       id="text7817"
       sodipodi:linespacing="125%"><tspan
         sodipodi:role="line"
         id="tspan7819"
         x="326.31052"
         y="872.38434">再利用非対象</tspan></text>
    <rect
       style="color:#000000;fill:#ffffff;fill-opacity:1;fill-rule:nonzero;stroke:#000000;stroke-width:2;stroke-linecap:butt;stroke-linejoin:round;stroke-miterlimit:4;stroke-opacity:1;stroke-dasharray:none;stroke-dashoffset:0;marker:none;visibility:visible;display:inline;overflow:visible;enable-background:accumulate"
       id="rect7864"
       width="28.864014"
       height="25.161011"
       x="580.09528"
       y="818.16559"
       rx="2.2097087"
       ry="2.2097087"
       inkscape:tile-cx="404.06352"
       inkscape:tile-cy="643.56052"
       inkscape:tile-w="55.265339"
       inkscape:tile-h="36.292664"
       inkscape:tile-x0="376.43085"
       inkscape:tile-y0="625.41418" />
    <text
       xml:space="preserve"
       style="font-size:20px;font-style:normal;font-variant:normal;font-weight:normal;font-stretch:normal;line-height:125%;letter-spacing:0px;word-spacing:0px;fill:#a40000;fill-opacity:1;stroke:none;font-family:Sans;-inkscape-font-specification:Sans"
       x="584.23743"
       y="837.96417"
       id="text7866"
       sodipodi:linespacing="125%"><tspan
         sodipodi:role="line"
         id="tspan7868"
         x="584.23743"
         y="837.96417">×</tspan></text>
    <rect
       inkscape:tile-y0="625.41418"
       inkscape:tile-x0="376.43085"
       inkscape:tile-h="36.292664"
       inkscape:tile-w="55.265339"
       inkscape:tile-cy="643.56052"
       inkscape:tile-cx="404.06352"
       ry="2.2097087"
       rx="2.2097087"
       y="856.16559"
       x="562.09528"
       height="25.161011"
       width="28.864014"
       id="rect7870"
       style="color:#000000;fill:#ffffff;fill-opacity:1;fill-rule:nonzero;stroke:#000000;stroke-width:2;stroke-linecap:butt;stroke-linejoin:round;stroke-miterlimit:4;stroke-opacity:1;stroke-dasharray:none;stroke-dashoffset:0;marker:none;visibility:visible;display:inline;overflow:visible;enable-background:accumulate" />
    <text
       sodipodi:linespacing="125%"
       id="text7872"
       y="875.96417"
       x="566.23743"
       style="font-size:20px;font-style:normal;font-variant:normal;font-weight:normal;font-stretch:normal;line-height:125%;letter-spacing:0px;word-spacing:0px;fill:#a40000;fill-opacity:1;stroke:none;font-family:Sans;-inkscape-font-specification:Sans"
       xml:space="preserve"><tspan
         y="875.96417"
         x="566.23743"
         id="tspan7874"
         sodipodi:role="line">×</tspan></text>
    <rect
       style="color:#000000;fill:#ffffff;fill-opacity:1;fill-rule:nonzero;stroke:#000000;stroke-width:2;stroke-linecap:butt;stroke-linejoin:round;stroke-miterlimit:4;stroke-opacity:1;stroke-dasharray:none;stroke-dashoffset:0;marker:none;visibility:visible;display:inline;overflow:visible;enable-background:accumulate"
       id="rect7876"
       width="28.864014"
       height="25.161011"
       x="480.09528"
       y="856.16559"
       rx="2.2097087"
       ry="2.2097087"
       inkscape:tile-cx="404.06352"
       inkscape:tile-cy="643.56052"
       inkscape:tile-w="55.265339"
       inkscape:tile-h="36.292664"
       inkscape:tile-x0="376.43085"
       inkscape:tile-y0="625.41418" />
    <text
       xml:space="preserve"
       style="font-size:20px;font-style:normal;font-variant:normal;font-weight:normal;font-stretch:normal;line-height:125%;letter-spacing:0px;word-spacing:0px;fill:#a40000;fill-opacity:1;stroke:none;font-family:Sans;-inkscape-font-specification:Sans"
       x="484.23743"
       y="875.96417"
       id="text7878"
       sodipodi:linespacing="125%"><tspan
         sodipodi:role="line"
         id="tspan7880"
         x="484.23743"
         y="875.96417">×</tspan></text>
    <rect
       inkscape:tile-y0="625.41418"
       inkscape:tile-x0="376.43085"
       inkscape:tile-h="36.292664"
       inkscape:tile-w="55.265339"
       inkscape:tile-cy="643.56052"
       inkscape:tile-cx="404.06352"
       ry="2.2097087"
       rx="2.2097087"
       y="948.85553"
       x="488.36734"
       height="75.292664"
       width="213.26535"
       id="rect7882"
       style="color:#000000;fill:#ffffff;fill-opacity:1;fill-rule:nonzero;stroke:#000000;stroke-width:2;stroke-linecap:butt;stroke-linejoin:round;stroke-miterlimit:4;stroke-opacity:1;stroke-dasharray:none;stroke-dashoffset:0;marker:none;visibility:visible;display:inline;overflow:visible;enable-background:accumulate" />
    <rect
       inkscape:tile-y0="625.41418"
       inkscape:tile-x0="376.43085"
       inkscape:tile-h="36.292664"
       inkscape:tile-w="55.265339"
       inkscape:tile-cy="643.56052"
       inkscape:tile-cx="404.06352"
       ry="2.2097087"
       rx="2.2097087"
       y="949.85553"
       x="489.36734"
       height="36.292664"
       width="99.26535"
       id="rect7884"
       style="color:#000000;fill:#ffffff;fill-opacity:1;fill-rule:nonzero;stroke:#000000;stroke-width:2;stroke-linecap:butt;stroke-linejoin:round;stroke-miterlimit:4;stroke-opacity:1;stroke-dasharray:none;stroke-dashoffset:0;marker:none;visibility:visible;display:inline;overflow:visible;enable-background:accumulate" />
    <rect
       style="color:#000000;fill:#ffffff;fill-opacity:1;fill-rule:nonzero;stroke:#000000;stroke-width:2;stroke-linecap:butt;stroke-linejoin:round;stroke-miterlimit:4;stroke-opacity:1;stroke-dasharray:none;stroke-dashoffset:0;marker:none;visibility:visible;display:inline;overflow:visible;enable-background:accumulate"
       id="rect7886"
       width="71.76532"
       height="36.292664"
       x="589.36737"
       y="949.85553"
       rx="2.2097087"
       ry="2.2097087"
       inkscape:tile-cx="404.06352"
       inkscape:tile-cy="643.56052"
       inkscape:tile-w="55.265339"
       inkscape:tile-h="36.292664"
       inkscape:tile-x0="376.43085"
       inkscape:tile-y0="625.41418" />
    <rect
       inkscape:tile-y0="625.41418"
       inkscape:tile-x0="376.43085"
       inkscape:tile-h="36.292664"
       inkscape:tile-w="55.265339"
       inkscape:tile-cy="643.56052"
       inkscape:tile-cx="404.06352"
       ry="2.2097087"
       rx="2.2097087"
       y="987.35553"
       x="488.86737"
       height="36.292664"
       width="80.26532"
       id="rect7888"
       style="color:#000000;fill:#ffffff;fill-opacity:1;fill-rule:nonzero;stroke:#000000;stroke-width:2;stroke-linecap:butt;stroke-linejoin:round;stroke-miterlimit:4;stroke-opacity:1;stroke-dasharray:none;stroke-dashoffset:0;marker:none;visibility:visible;display:inline;overflow:visible;enable-background:accumulate" />
    <rect
       inkscape:tile-y0="625.41418"
       inkscape:tile-x0="376.43085"
       inkscape:tile-h="36.292664"
       inkscape:tile-w="55.265339"
       inkscape:tile-cy="643.56052"
       inkscape:tile-cx="404.06352"
       ry="2.2097087"
       rx="2.2097087"
       y="950.35553"
       x="662.36737"
       height="36.292664"
       width="37.76532"
       id="rect7890"
       style="color:#000000;fill:#ffffff;fill-opacity:1;fill-rule:nonzero;stroke:#000000;stroke-width:2;stroke-linecap:butt;stroke-linejoin:round;stroke-miterlimit:4;stroke-opacity:1;stroke-dasharray:none;stroke-dashoffset:0;marker:none;visibility:visible;display:inline;overflow:visible;enable-background:accumulate" />
    <rect
       style="color:#000000;fill:#ffffff;fill-opacity:1;fill-rule:nonzero;stroke:#000000;stroke-width:2;stroke-linecap:butt;stroke-linejoin:round;stroke-miterlimit:4;stroke-opacity:1;stroke-dasharray:none;stroke-dashoffset:0;marker:none;visibility:visible;display:inline;overflow:visible;enable-background:accumulate"
       id="rect7892"
       width="28.864014"
       height="25.161011"
       x="480.09528"
       y="936.16559"
       rx="2.2097087"
       ry="2.2097087"
       inkscape:tile-cx="404.06352"
       inkscape:tile-cy="643.56052"
       inkscape:tile-w="55.265339"
       inkscape:tile-h="36.292664"
       inkscape:tile-x0="376.43085"
       inkscape:tile-y0="625.41418" />
    <text
       xml:space="preserve"
       style="font-size:20px;font-style:normal;font-variant:normal;font-weight:normal;font-stretch:normal;line-height:125%;letter-spacing:0px;word-spacing:0px;fill:#a40000;fill-opacity:1;stroke:none;font-family:Sans;-inkscape-font-specification:Sans"
       x="484.2374"
       y="955.96417"
       id="text7894"
       sodipodi:linespacing="125%"><tspan
         sodipodi:role="line"
         id="tspan7896"
         x="484.2374"
         y="955.96417">×</tspan></text>
    <rect
       style="color:#000000;fill:#ffffff;fill-opacity:1;fill-rule:nonzero;stroke:#000000;stroke-width:2;stroke-linecap:butt;stroke-linejoin:round;stroke-miterlimit:4;stroke-opacity:1;stroke-dasharray:none;stroke-dashoffset:0;marker:none;visibility:visible;display:inline;overflow:visible;enable-background:accumulate"
       id="rect7898"
       width="131.26532"
       height="36.292725"
       x="568.86737"
       y="987.35553"
       rx="2.2097087"
       ry="2.2097087"
       inkscape:tile-cx="404.06352"
       inkscape:tile-cy="643.56052"
       inkscape:tile-w="55.265339"
       inkscape:tile-h="36.292664"
       inkscape:tile-x0="376.43085"
       inkscape:tile-y0="625.41418" />
    <text
       sodipodi:linespacing="125%"
       id="text7900"
       y="990.38428"
       x="326.31052"
       style="font-size:20px;font-style:normal;font-variant:normal;font-weight:normal;font-stretch:normal;line-height:125%;letter-spacing:0px;word-spacing:0px;fill:#000000;fill-opacity:1;stroke:none;font-family:Sans;-inkscape-font-specification:Sans"
       xml:space="preserve"><tspan
         y="990.38428"
         x="326.31052"
         id="tspan7902"
         sodipodi:role="line">再利用対象！</tspan></text>
    <rect
       inkscape:tile-y0="625.41418"
       inkscape:tile-x0="376.43085"
       inkscape:tile-h="36.292664"
       inkscape:tile-w="55.265339"
       inkscape:tile-cy="643.56052"
       inkscape:tile-cx="404.06352"
       ry="2.2097087"
       rx="2.2097087"
       y="936.16559"
       x="580.09528"
       height="25.161011"
       width="28.864014"
       id="rect7904"
       style="color:#000000;fill:#ffffff;fill-opacity:1;fill-rule:nonzero;stroke:#000000;stroke-width:2;stroke-linecap:butt;stroke-linejoin:round;stroke-miterlimit:4;stroke-opacity:1;stroke-dasharray:none;stroke-dashoffset:0;marker:none;visibility:visible;display:inline;overflow:visible;enable-background:accumulate" />
    <text
       sodipodi:linespacing="125%"
       id="text7906"
       y="955.96417"
       x="584.23743"
       style="font-size:20px;font-style:normal;font-variant:normal;font-weight:normal;font-stretch:normal;line-height:125%;letter-spacing:0px;word-spacing:0px;fill:#a40000;fill-opacity:1;stroke:none;font-family:Sans;-inkscape-font-specification:Sans"
       xml:space="preserve"><tspan
         y="955.96417"
         x="584.23743"
         id="tspan7908"
         sodipodi:role="line">×</tspan></text>
    <rect
       style="color:#000000;fill:#ffffff;fill-opacity:1;fill-rule:nonzero;stroke:#000000;stroke-width:2;stroke-linecap:butt;stroke-linejoin:round;stroke-miterlimit:4;stroke-opacity:1;stroke-dasharray:none;stroke-dashoffset:0;marker:none;visibility:visible;display:inline;overflow:visible;enable-background:accumulate"
       id="rect7910"
       width="28.864014"
       height="25.161011"
       x="562.09528"
       y="974.16559"
       rx="2.2097087"
       ry="2.2097087"
       inkscape:tile-cx="404.06352"
       inkscape:tile-cy="643.56052"
       inkscape:tile-w="55.265339"
       inkscape:tile-h="36.292664"
       inkscape:tile-x0="376.43085"
       inkscape:tile-y0="625.41418" />
    <text
       xml:space="preserve"
       style="font-size:20px;font-style:normal;font-variant:normal;font-weight:normal;font-stretch:normal;line-height:125%;letter-spacing:0px;word-spacing:0px;fill:#a40000;fill-opacity:1;stroke:none;font-family:Sans;-inkscape-font-specification:Sans"
       x="566.23743"
       y="993.96417"
       id="text7912"
       sodipodi:linespacing="125%"><tspan
         sodipodi:role="line"
         id="tspan7914"
         x="566.23743"
         y="993.96417">×</tspan></text>
    <rect
       inkscape:tile-y0="625.41418"
       inkscape:tile-x0="376.43085"
       inkscape:tile-h="36.292664"
       inkscape:tile-w="55.265339"
       inkscape:tile-cy="643.56052"
       inkscape:tile-cx="404.06352"
       ry="2.2097087"
       rx="2.2097087"
       y="974.16559"
       x="480.09528"
       height="25.161011"
       width="28.864014"
       id="rect7916"
       style="color:#000000;fill:#ffffff;fill-opacity:1;fill-rule:nonzero;stroke:#000000;stroke-width:2;stroke-linecap:butt;stroke-linejoin:round;stroke-miterlimit:4;stroke-opacity:1;stroke-dasharray:none;stroke-dashoffset:0;marker:none;visibility:visible;display:inline;overflow:visible;enable-background:accumulate" />
    <text
       sodipodi:linespacing="125%"
       id="text7918"
       y="993.96417"
       x="484.23743"
       style="font-size:20px;font-style:normal;font-variant:normal;font-weight:normal;font-stretch:normal;line-height:125%;letter-spacing:0px;word-spacing:0px;fill:#a40000;fill-opacity:1;stroke:none;font-family:Sans;-inkscape-font-specification:Sans"
       xml:space="preserve"><tspan
         y="993.96417"
         x="484.23743"
         id="tspan7920"
         sodipodi:role="line">×</tspan></text>
    <rect
       style="color:#000000;fill:#ffffff;fill-opacity:1;fill-rule:nonzero;stroke:#000000;stroke-width:2;stroke-linecap:butt;stroke-linejoin:round;stroke-miterlimit:4;stroke-opacity:1;stroke-dasharray:none;stroke-dashoffset:0;marker:none;visibility:visible;display:inline;overflow:visible;enable-background:accumulate"
       id="rect7922"
       width="28.864014"
       height="25.161011"
       x="652.09528"
       y="936.16559"
       rx="2.2097087"
       ry="2.2097087"
       inkscape:tile-cx="404.06352"
       inkscape:tile-cy="643.56052"
       inkscape:tile-w="55.265339"
       inkscape:tile-h="36.292664"
       inkscape:tile-x0="376.43085"
       inkscape:tile-y0="625.41418" />
    <text
       xml:space="preserve"
       style="font-size:20px;font-style:normal;font-variant:normal;font-weight:normal;font-stretch:normal;line-height:125%;letter-spacing:0px;word-spacing:0px;fill:#a40000;fill-opacity:1;stroke:none;font-family:Sans;-inkscape-font-specification:Sans"
       x="656.23743"
       y="955.96417"
       id="text7924"
       sodipodi:linespacing="125%"><tspan
         sodipodi:role="line"
         id="tspan7926"
         x="656.23743"
         y="955.96417">×</tspan></text>
  </g>
</svg>
