<?xml version="1.0" encoding="UTF-8" standalone="no"?>
<!-- Created with Inkscape (http://www.inkscape.org/) -->

<svg
   xmlns:dc="http://purl.org/dc/elements/1.1/"
   xmlns:cc="http://creativecommons.org/ns#"
   xmlns:rdf="http://www.w3.org/1999/02/22-rdf-syntax-ns#"
   xmlns:svg="http://www.w3.org/2000/svg"
   xmlns="http://www.w3.org/2000/svg"
   xmlns:xlink="http://www.w3.org/1999/xlink"
   xmlns:sodipodi="http://sodipodi.sourceforge.net/DTD/sodipodi-0.dtd"
   xmlns:inkscape="http://www.inkscape.org/namespaces/inkscape"
   width="233.06136"
   height="115.46429"
   id="svg5047"
   version="1.1"
   inkscape:version="0.48.4 r9939"
   sodipodi:docname="新規ドキュメント 21">
  <defs
     id="defs5049">
    <marker
       inkscape:stockid="Arrow1Mend"
       orient="auto"
       refY="0"
       refX="0"
       id="Arrow1Mend"
       style="overflow:visible">
      <path
         inkscape:connector-curvature="0"
         id="path3784"
         d="M 0,0 5,-5 -12.5,0 5,5 0,0 z"
         style="fill-rule:evenodd;stroke:#000000;stroke-width:1pt"
         transform="matrix(-0.4,0,0,-0.4,-4,0)" />
    </marker>
  </defs>
  <sodipodi:namedview
     id="base"
     pagecolor="#ffffff"
     bordercolor="#666666"
     borderopacity="1.0"
     inkscape:pageopacity="0.0"
     inkscape:pageshadow="2"
     inkscape:zoom="1.4142136"
     inkscape:cx="254.2285"
     inkscape:cy="135.69685"
     inkscape:document-units="px"
     inkscape:current-layer="layer1"
     showgrid="false"
     fit-margin-top="5"
     fit-margin-left="5"
     fit-margin-right="5"
     fit-margin-bottom="5"
     inkscape:window-width="1506"
     inkscape:window-height="845"
     inkscape:window-x="2092"
     inkscape:window-y="149"
     inkscape:window-maximized="0" />
  <metadata
     id="metadata5052">
    <rdf:RDF>
      <cc:Work
         rdf:about="">
        <dc:format>image/svg+xml</dc:format>
        <dc:type
           rdf:resource="http://purl.org/dc/dcmitype/StillImage" />
        <dc:title></dc:title>
      </cc:Work>
    </rdf:RDF>
  </metadata>
  <g
     inkscape:label="レイヤー 1"
     inkscape:groupmode="layer"
     id="layer1"
     transform="translate(-370.43085,-588.53522)">
    <text
       xml:space="preserve"
       style="font-size:20px;font-style:normal;font-variant:normal;font-weight:normal;font-stretch:normal;line-height:125%;letter-spacing:0px;word-spacing:0px;fill:#000000;fill-opacity:1;stroke:none;font-family:Sans;-inkscape-font-specification:Sans"
       x="394.54688"
       y="610.2735"
       id="text3755"
       sodipodi:linespacing="125%"><tspan
         sodipodi:role="line"
         id="tspan3757"
         x="394.54688"
         y="610.2735">小さなサイズのデータ</tspan></text>
    <rect
       style="color:#000000;fill:#ffffff;fill-opacity:1;fill-rule:nonzero;stroke:#000000;stroke-width:2;stroke-linecap:butt;stroke-linejoin:round;stroke-miterlimit:4;stroke-opacity:1;stroke-dasharray:none;stroke-dashoffset:0;marker:none;visibility:visible;display:inline;overflow:visible;enable-background:accumulate"
       id="rect5147"
       width="55.265339"
       height="36.292664"
       x="376.43085"
       y="625.41418"
       rx="2.2097087"
       ry="2.2097087"
       inkscape:tile-cx="404.06352"
       inkscape:tile-cy="643.56052"
       inkscape:tile-w="55.265339"
       inkscape:tile-h="36.292664"
       inkscape:tile-x0="376.43085"
       inkscape:tile-y0="625.41418" />
    <use
       x="0"
       y="0"
       inkscape:tiled-clone-of="#rect5147"
       xlink:href="#rect5147"
       id="use5202"
       width="744.09448"
       height="1052.3622" />
    <use
       x="0"
       y="0"
       inkscape:tiled-clone-of="#rect5147"
       xlink:href="#rect5147"
       transform="translate(0,36.292664)"
       id="use5204"
       width="744.09448"
       height="1052.3622" />
    <use
       x="0"
       y="0"
       inkscape:tiled-clone-of="#rect5147"
       xlink:href="#rect5147"
       transform="translate(55.265339,0)"
       id="use5206"
       width="744.09448"
       height="1052.3622" />
    <use
       x="0"
       y="0"
       inkscape:tiled-clone-of="#rect5147"
       xlink:href="#rect5147"
       transform="translate(55.265339,36.292664)"
       id="use5208"
       width="744.09448"
       height="1052.3622" />
    <use
       x="0"
       y="0"
       inkscape:tiled-clone-of="#rect5147"
       xlink:href="#rect5147"
       transform="translate(110.53068,0)"
       id="use5210"
       width="744.09448"
       height="1052.3622" />
    <use
       x="0"
       y="0"
       inkscape:tiled-clone-of="#rect5147"
       xlink:href="#rect5147"
       transform="translate(110.53068,36.292664)"
       id="use5212"
       width="744.09448"
       height="1052.3622" />
    <use
       x="0"
       y="0"
       inkscape:tiled-clone-of="#rect5147"
       xlink:href="#rect5147"
       transform="translate(165.79602,0)"
       id="use5214"
       width="744.09448"
       height="1052.3622" />
    <use
       x="0"
       y="0"
       inkscape:tiled-clone-of="#rect5147"
       xlink:href="#rect5147"
       transform="translate(165.79602,36.292664)"
       id="use5216"
       width="744.09448"
       height="1052.3622" />
    <rect
       style="color:#000000;fill:#a40000;fill-opacity:1;fill-rule:nonzero;stroke:none;stroke-width:0;marker:none;visibility:visible;display:inline;overflow:visible;enable-background:accumulate"
       id="rect2985"
       width="41.89035"
       height="34.652466"
       x="376.92493"
       y="626.32294"
       rx="2.1707277"
       ry="2.1707277" />
    <rect
       ry="2.1707277"
       rx="2.1707277"
       y="626.32294"
       x="432.17493"
       height="34.652466"
       width="38.89035"
       id="rect5829"
       style="color:#000000;fill:#a40000;fill-opacity:1;fill-rule:nonzero;stroke:none;stroke-width:0;marker:none;visibility:visible;display:inline;overflow:visible;enable-background:accumulate" />
    <rect
       style="color:#000000;fill:#a40000;fill-opacity:1;fill-rule:nonzero;stroke:none;stroke-width:0;marker:none;visibility:visible;display:inline;overflow:visible;enable-background:accumulate"
       id="rect5831"
       width="47.89032"
       height="34.652466"
       x="487.50604"
       y="626.32294"
       rx="2.1707277"
       ry="2.1707277" />
    <rect
       ry="2.1707277"
       rx="2.1707277"
       y="626.32294"
       x="542.48358"
       height="34.652466"
       width="46.01532"
       id="rect5833"
       style="color:#000000;fill:#a40000;fill-opacity:1;fill-rule:nonzero;stroke:none;stroke-width:0;marker:none;visibility:visible;display:inline;overflow:visible;enable-background:accumulate" />
    <rect
       style="color:#000000;fill:#a40000;fill-opacity:1;fill-rule:nonzero;stroke:none;stroke-width:0;marker:none;visibility:visible;display:inline;overflow:visible;enable-background:accumulate"
       id="rect5835"
       width="44.76535"
       height="34.652466"
       x="377.07236"
       y="662.56213"
       rx="2.1707277"
       ry="2.1707277" />
  </g>
</svg>
